[
  {
"id": 1388534400099,
"author": "Course Code",
"text": "Title",
"facultyName": "Faculty Name",
"marks":"Marks"
  },
 {
"id": 1388534400000,
"author": "15PD201",
"text": "Quanitative aptitive and logical reasoning",
"facultyName": "Mr. Suresh Kumar",
"marks":"10/10"
  },
 
  {
"id": 1420070400000,
"author": "15EC201J",
"text": "Electron Devices",
"facultyName": "Mr. Ayush verma",
"marks":"8/10"

    },
  {"id":123456, "author":"15MA201","text":"Maths",
"facultyName": "Mr. Chetan Ruparel",
"marks":"9/10"
},
  {"id":45,"author":"15EC205","text":"Signals and Systems",
"facultyName": "Mr. Ventaka",
"marks":"8.5/10"
},
  {
"id": 138853440550000,
"author": "15EC207",
        "text": "Electromagnatics and transmission lines",
"facultyName": "Mr. Suresh Badarla",
"marks":"7/10"

    },
 
  {
        "id": 14200704005000,
        "author": "15EC207J",
        "text": "Digital Systems",
"facultyName": "Miss Ayantika",
"marks":"5/10"

    },
  {"id":1234567, "author":"15CS1001","text":"Operating Systems",
"facultyName": "Miss Kanmani Sagar",
"marks":"6/10"
}
 
]